Place,Name,Sex,BirthDate,Country,Equipment,Division,BodyweightKg,WeightClassKg,Squat1Kg,Squat2Kg,Squat3Kg,Best3SquatKg,Bench1Kg,Bench2Kg,Bench3Kg,Bench4Kg,Best3BenchKg,Deadlift1Kg,Deadlift2Kg,Deadlift3Kg,Deadlift4Kg,Best3DeadliftKg,TotalKg,Event
DQ,Nicola Harte,F,1982-12-10,Ireland,Wraps,F_MCR_1_IPO,66.15,67.5,-145,-145,-145,,82.5,87.5,90,-92.5,90,160,170,-176,,170,,SBD
1,Charlotte Viccars,F,1995-12-21,UK,Wraps,F_OCR_AIPO,55,56,135,142.5,-150,142.5,70,77.5,82.5,,82.5,130,140,147.5,,147.5,372.5,SBD
1,Lucy McDonald,F,1999-03-23,UK,Wraps,F_OCR_IPO,74.35,75,190,215,-227.5,215,95,105,110,,110,190,205,-211,,205,530,SBD
2,Kimber-Lee Hicks,F,1988-07-18,UK,Wraps,F_OCR_IPO,68.65,75,175,-190,190,190,90,100,107.5,,107.5,192.5,202.5,206,,206,503.5,SBD
1,Inese Jaunpaule,F,1988-12-26,UK,Wraps,F_OCR_IPO,82.35,82.5,175,185,-195,185,110,-117.5,117.5,,117.5,175,-185,-185,,175,477.5,SBD
2,Paula Zaradkiewicz,F,1987-12-11,UK,Wraps,F_OCR_IPO,78.3,82.5,145,165,170,170,62.5,70,72.5,,72.5,-160,160,172.5,,172.5,415,SBD
1,Charlotte Viccars,F,1995-12-21,UK,Raw,F_OR_IPO,55,56,,,,,70,77.5,82.5,,82.5,130,140,147.5,,147.5,230,BD
DQ,Csaba Bajczer,M,2001-08-04,Hungary,Wraps,M_JCR_IPO,89.15,90,-300,-310,-310,,,,,,,,,,,,,SBD
1,Darragh O'Keeffe,M,2002-12-06,Ireland,Wraps,M_JCR_IPO,99.9,100,275,290,300,300,170,-175,175,,175,310,-320,320,-325,320,795,SBD
2,Harry Whitburn,M,2003-01-22,UK,Wraps,M_JCR_IPO,99.25,100,260,277.5,285,285,130,137.5,-142.5,,137.5,-260,280,-290,,280,702.5,SBD
3,Beau Rogers,M,2000-07-28,UK,Wraps,M_JCR_IPO,96.45,100,240,270,-275,270,135,145,-150,,145,275,-305,-305,,275,690,SBD
1,George Kolar,M,2000-10-30,UK,Wraps,M_JCR_IPO,120.4,125,320,350,365,365,195,205,215,,215,285,310,320,325,320,900,SBD
1,Damien Blackmore,M,1982-11-16,Ireland,Wraps,M_MCR_1_IPO,88.6,90,250,-265,-265,250,155,167.5,-172.5,,167.5,255,270,-280,,270,687.5,SBD
1,Martin O Mahony,M,1979-11-16,Ireland,Wraps,M_MCR_1_IPO,96.25,100,-225,225,240,240,140,145,147.5,,147.5,272.5,285,-287.5,,285,672.5,SBD
1,Matthew Fealey,M,1980-06-17,UK,Wraps,M_MCR_1_IPO,107.8,110,270,290,300,300,185,195,-202.5,,195,280,307.5,-315,,307.5,802.5,SBD
1,David Chevron,M,1977-12-10,France,Wraps,M_MCR_2_IPO,138.35,140,280,-290,,280,180,190,-195,,190,-345,355,-365,,355,825,SBD
1,Seamus Kirwan,M,1971-05-18,Ireland,Wraps,M_MCR_3_IPO,82.05,82.5,210,-220,-220,210,130,137.5,140,,140,230,-240,-240,,230,580,SBD
1,Richard Horan,M,1967-06-09,Ireland,Wraps,M_MCR_4_IPO,116.25,125,-290,-300,300,300,162.5,170,-172.5,,170,260,-270,270,,270,740,SBD
DQ,Barry Smith #1,M,1987-02-25,Ireland,Wraps,M_OCR_AIPO,59.25,60,-170,-185,-185,,100,110,-115,,110,185,-205,,,185,,SBD
1,Sam Frew,M,1997-05-13,UK,Wraps,M_OCR_AIPO,72.85,75,220,-240,-240,220,132.5,140,142.5,,142.5,185,205,225,,225,587.5,SBD
1,Chris Pugh #1,M,1993-04-16,UK,Wraps,M_OCR_IPO,81.75,82.5,-310,-335,342.5,342.5,180,195,205,,205,250,290,-308,,290,837.5,SBD
2,Derek Abbott,M,1984-06-18,Ireland,Wraps,M_OCR_IPO,80.6,82.5,260,-280,-280,260,157.5,165,172.5,,172.5,260,275,-282.5,,275,707.5,SBD
1,Callum Waters #2,M,1992-12-16,UK,Wraps,M_OCR_AIPO,82.25,82.5,215,225,242.5,242.5,135,-142.5,142.5,,142.5,235,245,-252.5,,245,630,SBD
2,Conner McCulloch,M,2002-11-26,UK,Wraps,M_OCR_AIPO,82.35,82.5,240,265,-272.5,265,122.5,-130,-130,,122.5,210,225,232.5,,232.5,620,SBD
1,Dayle Longford,M,1988-07-30,Wales,Wraps,M_OCR_IPO,88.95,90,-305,305,-325,305,200,210,217.5,,217.5,300,330,-360,,330,852.5,SBD
1,Mark Cosgrove,M,1988-04-09,Ireland,Wraps,M_OCR_AIPO,88.95,90,-240,240,,240,150,157.5,-160,,157.5,220,240,-257.5,,240,637.5,SBD
1,Bjorge Janssen,M,1993-07-23,Netherlands,Wraps,M_OCR_IPO,98.6,100,320,-340,-340,320,215,222.5,-227.5,,222.5,300,315,325,,325,867.5,SBD
2,Bruno Martinez #1,M,1992-10-18,Spain,Wraps,M_OCR_IPO,99.65,100,285,310,-322.5,310,190,-202.5,-202.5,,190,300,-315,,,300,800,SBD
DQ,Jon May,M,1991-06-08,UK,Wraps,M_OCR_IPO,96.7,100,-275,,,,,,,,,,,,,,,SBD
1,Reece Meakin,M,1990-08-22,UK,Wraps,M_OCR_IPO,101.1,110,320,345,355,355,207.5,215,220,,220,310,325,-335,,325,900,SBD
2,Cédric Debonlier,M,1991-12-12,Switzerland,Wraps,M_OCR_IPO,109,110,290,305,-310,305,180,187.5,195,,195,290,307.5,-312.5,,307.5,807.5,SBD
3,Jack Grose-Freeman,M,1998-07-27,UK,Wraps,M_OCR_IPO,106.25,110,-285,285,305,305,170,180,-185,,180,285,305,-315,,305,790,SBD
1,Sebastiaan Slotema,M,1991-09-08,Netherlands,Wraps,M_OCR_IPO,120.4,125,310,-330,340,340,200,210,215,,215,310,330,345,,345,900,SBD
2,AJ Cronin,M,1987-10-07,Ireland,Wraps,M_OCR_IPO,111.85,125,285,302.5,-307.5,302.5,180,187.5,192.5,,192.5,290,305,312.5,,312.5,807.5,SBD
1,Max Kleinwächter,M,1995-10-14,Germany,Wraps,M_OCR_IPO,133.4,140,370,405,,405,200,220,235,240,235,270,300,-305,,300,940,SBD
2,David Onyeme,M,1992-10-16,UK,Wraps,M_OCR_IPO,135.3,140,-330,330,-345,330,190,200,-210,,200,340,360,-370,,360,890,SBD
3,Robin Morley,M,1984-07-04,UK,Wraps,M_OCR_IPO,135.3,140,290,305,317.5,317.5,180,190,195,,195,300,320,-335,,320,832.5,SBD
